{
  "unpublishedCollection": {
    "name": "JSObject1",
    "pageId": "Page1",
    "pluginId": "js-plugin",
    "pluginType": "JS",
    "actions": [],
    "archivedActions": [],
    "body": "export default {\n\tmyVar1: [],\n\tmyVar2: {},\n\tmyFun1: () => {\n\t\treturn 10;\n\t}\n}",
    "variables": [
      {
        "name": "myVar1",
        "value": "[]"
      },
      {
        "name": "myVar2",
        "value": "{}"
      }
    ],
    "userPermissions": []
  },
  "id": "Page1_JSObject1",
  "deleted": false,
  "gitSyncId": "6343a1b73023b23d2304ae42_6343a2896e3e9525e741c3c9"
}