{
  "unpublishedPage": {
    "name": "Page9",
    "slug": "page9",
    "layouts": [
      {
        "viewMode": false,
        "dsl": {
          "widgetName": "MainContainer",
          "backgroundColor": "none",
          "rightColumn": 1224,
          "snapColumns": 64,
          "detachFromLayout": true,
          "widgetId": "0",
          "topRow": 0,
          "bottomRow": 870,
          "containerStyle": "none",
          "snapRows": 87,
          "parentRowSpace": 1,
          "type": "CANVAS_WIDGET",
          "canExtend": true,
          "version": 64,
          "minHeight": 880,
          "parentColumnSpace": 1,
          "dynamicBindingPathList": [],
          "leftColumn": 0,
          "children": []
        },
        "layoutOnLoadActions": [],
        "validOnPageLoadActions": true,
        "id": "Page9",
        "deleted": false,
        "policies": [],
        "userPermissions": []
      }
    ],
    "userPermissions": [],
    "policies": []
  },
  "deleted": false,
  "gitSyncId": "6343a1b73023b23d2304ae42_6343a232a9b0054527ce2282"
}